@startuml MasterMind
class GameBoard {
    -pawns : int
    -attemps : int
    -currentAttemp : int
    -colors : int
    -repeatColors : boolean
    -GameBoardOfPawns : Pawn[][]
    -secretCode : int[]
    -panel : JPanel
    +GameBoard(pawns : int, attemps : int, colors : int, repeatColors : boolean)
    +GameBoard(pawns : int, attemps : int, colors : int, repeatColors : boolean, g : GridLayout)
    -initGameBoard() : void
    -contains(array : int[], element : int) : boolean
    -initSecretCode() : void
    -addPawnsToPanel() : void
    +disableClick() : void
    +addResultToGameBoard(result : AttempResult) : void
    +checkRowFeedback(currentAttemp : int) : AttempResult
    +printGameBoard() : void
    +reset() : void
    +updateView() : void
    +submit() : int
    +addGuess(guess : int[]) : void
    +getPawns() : int
    +getAttemps() : int
    +getColors() : int
    +getRepeatColors() : boolean
    +getCurrentAttemp() : int
    +getGameBoardOfPawns() : Pawn[][]
    +getSecretCode() : int[]
    +increamentCurrentAttemp() : void
}

class Pawn {
    -button : JButton
    -currentColorIndex : int
    -nbColors : int
    -isClickable : boolean
    +Pawn(colors : int)
    +setButton() : void
    +getCurrentColor() : Color
    +getCurrentColorIndex() : int
    +setCurrentColorIndex(currentColorIndex : int) : void
    +disableButton() : void
    +setButtonClickable(clickable : boolean) : void
    +setIconColor(color : int) : void
    +setColor(color : int) : void
    +updatePawn() : void
    +toString() : String
    +setMouseListener() : void
}

class AttempResult {
    -CcWp : int
    -CcAp : int
    +AttempResult(CcWp : int, CcAp : int)
    +getCcWp() : int
    +getCcAp() : int
    +setCcWp(CcWp : int) : void
    +setCcAp(CcAp : int) : void
}

class Player {
    -name : String
    -score : int
    +Player(name : String)
    +getName() : String
    +getScore() : int
    +incrementScore() : void
    +decrementScore() : void
    +play(GameBoard : GameBoard) : void
    +addScore(points : int) : void
}

class AutoPlayer extends Player {
    +AutoPlayer()
    +play(gameBoard : GameBoard) : void
}

class AutoPlayer extends Player {
    +AutoPlayer()
    +play(gameBoard : GameBoard) : void
}

class Main {
    +main(args : String[]) : void
}

class TerminalMode {
    -GameBoard gameBoard
    -int nbgames
    -HashMap<Integer, String> colorsMap
    -Player[] players
    -int pawns
    -int attemps
    -int colors
    -boolean repeatColors
    -AttempResult result
    -int actualPlayer
    -int nbPlayers
    -int nbGames

    +TerminalMode()
    +void init()
    -void play(GameBoard gameBoard)
    -void initPlayers(int n)
    -boolean checkWin()
    -boolean maxAttemps()
    +static void clearConsole()
    +void initHashMap()
    +void showColorNumber(int Colors)
    -void resultToBW(AttempResult result)
    -void showPlayersScore()
    +void saveGame(String path)
    +void loadGame(String path)
}

class MenuUI {
    -players : Player[]
    +screenSize(pawns : int, attemps : int) : int[]
}

class Window {
    -width : int
    -height : int
    -game : GameBoard
    -players : Player[]
    -repaint() : void
    -setSize(width : int, height : int) : void
    -setMinimumSize(dimension : Dimension) : void
    -setLocationRelativeTo(component : Component) : void
    -setResizable(resizable : boolean) : void
    -setDefaultCloseOperation(operation : int) : void
    -createInfoLabel(path : String) : JLabel
}

TerminalMode *-- GameBoard
TerminalMode *-- Player
Window *-- GameBoard
Window *-- Player
GameBoard *-- Pawn
GameBoard *-- AttempResult

@enduml
